[api-updater (non-obsolete-error-filter)] 13-11-2021 10:41:07 : Starting /Applications/Unity/Hub/Editor/2020.3.19f1/Unity.app/Contents/Tools/ScriptUpdater/APIUpdater.NonObsoleteApiUpdaterDetector.exe
[api-updater (non-obsolete-error-filter)] 
----------------------------------
jit/startup time      : 187.585ms
moved types parse time: 47ms
candidates parse time : 1ms
C# parse time         : 229ms
candidates check time : 24ms
console write time    : 0ms

[api-updater (non-obsolete-error-filter)] 13-11-2021 10:45:35 : Starting /Applications/Unity/Hub/Editor/2020.3.19f1/Unity.app/Contents/Tools/ScriptUpdater/APIUpdater.NonObsoleteApiUpdaterDetector.exe
[api-updater (non-obsolete-error-filter)] 
----------------------------------
jit/startup time      : 56.42ms
moved types parse time: 36ms
candidates parse time : 0ms
C# parse time         : 145ms
candidates check time : 19ms
console write time    : 0ms

[api-updater (non-obsolete-error-filter)] 13-11-2021 15:04:36 : Starting /Applications/Unity/Hub/Editor/2020.3.19f1/Unity.app/Contents/Tools/ScriptUpdater/APIUpdater.NonObsoleteApiUpdaterDetector.exe
[api-updater (non-obsolete-error-filter)] 
----------------------------------
jit/startup time      : 136.651ms
moved types parse time: 42ms
candidates parse time : 0ms
C# parse time         : 185ms
candidates check time : 20ms
console write time    : 0ms

[api-updater (non-obsolete-error-filter)] 16-11-2021 18:21:48 : Starting /Applications/Unity/Hub/Editor/2020.3.19f1/Unity.app/Contents/Tools/ScriptUpdater/APIUpdater.NonObsoleteApiUpdaterDetector.exe
[api-updater (non-obsolete-error-filter)] 
----------------------------------
jit/startup time      : 192.402ms
moved types parse time: 46ms
candidates parse time : 1ms
C# parse time         : 241ms
candidates check time : 32ms
console write time    : 1ms

[api-updater (non-obsolete-error-filter)] 16-11-2021 18:39:28 : Starting /Applications/Unity/Hub/Editor/2020.3.19f1/Unity.app/Contents/Tools/ScriptUpdater/APIUpdater.NonObsoleteApiUpdaterDetector.exe
[api-updater (non-obsolete-error-filter)] 
----------------------------------
jit/startup time      : 152.259ms
moved types parse time: 44ms
candidates parse time : 0ms
C# parse time         : 229ms
candidates check time : 34ms
console write time    : 0ms

[api-updater (non-obsolete-error-filter)] 16-11-2021 18:40:44 : Starting /Applications/Unity/Hub/Editor/2020.3.19f1/Unity.app/Contents/Tools/ScriptUpdater/APIUpdater.NonObsoleteApiUpdaterDetector.exe
[api-updater (non-obsolete-error-filter)] 
----------------------------------
jit/startup time      : 42.784ms
moved types parse time: 37ms
candidates parse time : 0ms
C# parse time         : 172ms
candidates check time : 31ms
console write time    : 0ms

[api-updater (non-obsolete-error-filter)] 16-11-2021 18:44:14 : Starting /Applications/Unity/Hub/Editor/2020.3.19f1/Unity.app/Contents/Tools/ScriptUpdater/APIUpdater.NonObsoleteApiUpdaterDetector.exe
[api-updater (non-obsolete-error-filter)] 
----------------------------------
jit/startup time      : 131.021ms
moved types parse time: 41ms
candidates parse time : 0ms
C# parse time         : 202ms
candidates check time : 30ms
console write time    : 0ms

[api-updater (non-obsolete-error-filter)] 16-11-2021 18:53:42 : Starting /Applications/Unity/Hub/Editor/2020.3.19f1/Unity.app/Contents/Tools/ScriptUpdater/APIUpdater.NonObsoleteApiUpdaterDetector.exe
[api-updater (non-obsolete-error-filter)] 
----------------------------------
jit/startup time      : 135.045ms
moved types parse time: 44ms
candidates parse time : 0ms
C# parse time         : 193ms
candidates check time : 32ms
console write time    : 0ms

[api-updater (non-obsolete-error-filter)] 16-11-2021 18:58:44 : Starting /Applications/Unity/Hub/Editor/2020.3.19f1/Unity.app/Contents/Tools/ScriptUpdater/APIUpdater.NonObsoleteApiUpdaterDetector.exe
[api-updater (non-obsolete-error-filter)] 
----------------------------------
jit/startup time      : 37.018ms
moved types parse time: 36ms
candidates parse time : 0ms
C# parse time         : 173ms
candidates check time : 29ms
console write time    : 0ms

[api-updater (non-obsolete-error-filter)] 16-11-2021 20:06:01 : Starting /Applications/Unity/Hub/Editor/2020.3.19f1/Unity.app/Contents/Tools/ScriptUpdater/APIUpdater.NonObsoleteApiUpdaterDetector.exe
[api-updater (non-obsolete-error-filter)] 
----------------------------------
jit/startup time      : 37.798ms
moved types parse time: 36ms
candidates parse time : 0ms
C# parse time         : 170ms
candidates check time : 32ms
console write time    : 0ms

[api-updater (non-obsolete-error-filter)] 16-11-2021 20:06:27 : Starting /Applications/Unity/Hub/Editor/2020.3.19f1/Unity.app/Contents/Tools/ScriptUpdater/APIUpdater.NonObsoleteApiUpdaterDetector.exe
[api-updater (non-obsolete-error-filter)] 
----------------------------------
jit/startup time      : 36.749ms
moved types parse time: 37ms
candidates parse time : 0ms
C# parse time         : 164ms
candidates check time : 28ms
console write time    : 0ms

[api-updater (non-obsolete-error-filter)] 17-11-2021 10:29:55 : Starting /Applications/Unity/Hub/Editor/2020.3.19f1/Unity.app/Contents/Tools/ScriptUpdater/APIUpdater.NonObsoleteApiUpdaterDetector.exe
[api-updater (non-obsolete-error-filter)] 
----------------------------------
jit/startup time      : 145.827ms
moved types parse time: 47ms
candidates parse time : 1ms
C# parse time         : 218ms
candidates check time : 28ms
console write time    : 0ms

[api-updater (non-obsolete-error-filter)] 17-11-2021 10:32:17 : Starting /Applications/Unity/Hub/Editor/2020.3.19f1/Unity.app/Contents/Tools/ScriptUpdater/APIUpdater.NonObsoleteApiUpdaterDetector.exe
[api-updater (non-obsolete-error-filter)] 
----------------------------------
jit/startup time      : 34.987ms
moved types parse time: 39ms
candidates parse time : 1ms
C# parse time         : 168ms
candidates check time : 33ms
console write time    : 0ms

[api-updater (non-obsolete-error-filter)] 17-11-2021 10:37:43 : Starting /Applications/Unity/Hub/Editor/2020.3.19f1/Unity.app/Contents/Tools/ScriptUpdater/APIUpdater.NonObsoleteApiUpdaterDetector.exe
[api-updater (non-obsolete-error-filter)] 
----------------------------------
jit/startup time      : 35.496ms
moved types parse time: 36ms
candidates parse time : 1ms
C# parse time         : 173ms
candidates check time : 28ms
console write time    : 0ms

[api-updater (non-obsolete-error-filter)] 17-11-2021 10:48:25 : Starting /Applications/Unity/Hub/Editor/2020.3.19f1/Unity.app/Contents/Tools/ScriptUpdater/APIUpdater.NonObsoleteApiUpdaterDetector.exe
[api-updater (non-obsolete-error-filter)] 
----------------------------------
jit/startup time      : 52.094ms
moved types parse time: 37ms
candidates parse time : 0ms
C# parse time         : 170ms
candidates check time : 26ms
console write time    : 0ms

[api-updater (non-obsolete-error-filter)] 17-11-2021 11:09:14 : Starting /Applications/Unity/Hub/Editor/2020.3.19f1/Unity.app/Contents/Tools/ScriptUpdater/APIUpdater.NonObsoleteApiUpdaterDetector.exe
[api-updater (non-obsolete-error-filter)] 
----------------------------------
jit/startup time      : 39.573ms
moved types parse time: 39ms
candidates parse time : 1ms
C# parse time         : 185ms
candidates check time : 28ms
console write time    : 0ms

[api-updater (non-obsolete-error-filter)] 17-11-2021 11:11:22 : Starting /Applications/Unity/Hub/Editor/2020.3.19f1/Unity.app/Contents/Tools/ScriptUpdater/APIUpdater.NonObsoleteApiUpdaterDetector.exe
[api-updater (non-obsolete-error-filter)] 
----------------------------------
jit/startup time      : 37.108ms
moved types parse time: 37ms
candidates parse time : 0ms
C# parse time         : 176ms
candidates check time : 26ms
console write time    : 0ms

[api-updater (non-obsolete-error-filter)] 17-11-2021 11:26:53 : Starting /Applications/Unity/Hub/Editor/2020.3.19f1/Unity.app/Contents/Tools/ScriptUpdater/APIUpdater.NonObsoleteApiUpdaterDetector.exe
[api-updater (non-obsolete-error-filter)] 
----------------------------------
jit/startup time      : 37.446ms
moved types parse time: 37ms
candidates parse time : 0ms
C# parse time         : 171ms
candidates check time : 29ms
console write time    : 0ms

[api-updater (non-obsolete-error-filter)] 17-11-2021 11:28:44 : Starting /Applications/Unity/Hub/Editor/2020.3.19f1/Unity.app/Contents/Tools/ScriptUpdater/APIUpdater.NonObsoleteApiUpdaterDetector.exe
[api-updater (non-obsolete-error-filter)] 
----------------------------------
jit/startup time      : 38.017ms
moved types parse time: 38ms
candidates parse time : 0ms
C# parse time         : 173ms
candidates check time : 30ms
console write time    : 0ms

[api-updater (non-obsolete-error-filter)] 17-11-2021 11:51:30 : Starting /Applications/Unity/Hub/Editor/2020.3.19f1/Unity.app/Contents/Tools/ScriptUpdater/APIUpdater.NonObsoleteApiUpdaterDetector.exe
[api-updater (non-obsolete-error-filter)] 
----------------------------------
jit/startup time      : 35.779ms
moved types parse time: 38ms
candidates parse time : 1ms
C# parse time         : 181ms
candidates check time : 27ms
console write time    : 0ms

[api-updater (non-obsolete-error-filter)] 17-11-2021 11:58:08 : Starting /Applications/Unity/Hub/Editor/2020.3.19f1/Unity.app/Contents/Tools/ScriptUpdater/APIUpdater.NonObsoleteApiUpdaterDetector.exe
[api-updater (non-obsolete-error-filter)] 
----------------------------------
jit/startup time      : 35.011ms
moved types parse time: 36ms
candidates parse time : 0ms
C# parse time         : 168ms
candidates check time : 26ms
console write time    : 0ms

[api-updater (non-obsolete-error-filter)] 17-11-2021 11:58:18 : Starting /Applications/Unity/Hub/Editor/2020.3.19f1/Unity.app/Contents/Tools/ScriptUpdater/APIUpdater.NonObsoleteApiUpdaterDetector.exe
[api-updater (non-obsolete-error-filter)] 
----------------------------------
jit/startup time      : 41.297ms
moved types parse time: 37ms
candidates parse time : 0ms
C# parse time         : 170ms
candidates check time : 26ms
console write time    : 0ms

